CS202-project/CS202-project.sim/sim_1/behav/xsim/simulate.log
Vivado Simulator 2018.3
Time resolution is 1 ps
@@@@@@@@@@          1@@@@@@@@@@
                  10,0x00000008  0x000000ff
@@@@@@@@@@          3@@@@@@@@@@
                  30,0x0000000f  0x0000ffff
@@@@@@@@@@          5@@@@@@@@@@
                  50,0x00000009 0x0000ffff
@@@@@@@@@@          6@@@@@@@@@@
                  60,0x00000101       4369
@@@@@@@@@@          7@@@@@@@@@@
                  70,0x00000101  0x00001111
@@@@@@@@@@          8@@@@@@@@@@
                  80,0x00000202  0x0000ffff
@@@@@@@@@@          9@@@@@@@@@@
                  90,0x00000202  0x00001111
@@@@@@@@@@         10@@@@@@@@@@
                 100,0x00000303  0x0000ffff
@@@@@@@@@@         11@@@@@@@@@@
                 110,0x0000000a  0x00001111
@@@@@@@@@@         12@@@@@@@@@@
                 120,0x0000000a  0x00001111
@@@@@@@@@@         13@@@@@@@@@@
                 130,0x0000000a  0xffffffff
@@@@@@@@@@         14@@@@@@@@@@
                 140,0x0000000a  0x00000606
@@@@@@@@@@         15@@@@@@@@@@
                 150,0x0000000a  0x00000606
@@@@@@@@@@         16@@@@@@@@@@
                 160,0x00000000  0x00000606
@@@@@@@@@@         17@@@@@@@@@@
                 170,0x00000000  0x00001010
@@@@@@@@@@         18@@@@@@@@@@
                 180,0x00000000  0x00001111
@@@@@@@@@@         19@@@@@@@@@@
                 190,0x00001212  0x00001212
@@@@@@@@@@         20@@@@@@@@@@
                 200,0x00001313  0x00001313
@@@@@@@@@@         21@@@@@@@@@@
                 210,0x00001414  0x00001414
@@@@@@@@@@         22@@@@@@@@@@
                 220,0x00001515  0x00001515
@@@@@@@@@@         23@@@@@@@@@@
                 230,0x00001616  0x00001616
@@@@@@@@@@         24@@@@@@@@@@
                 240,0x00001717  0x00001717
@@@@@@@@@@         25@@@@@@@@@@
                 250,0x00001818  0x00001818
@@@@@@@@@@         26@@@@@@@@@@
                 260,0x00001919  0x00001919
@@@@@@@@@@         27@@@@@@@@@@
                 270,0x00002020  0x00002020
@@@@@@@@@@         28@@@@@@@@@@
                 280,0x00002121  0x00002121
@@@@@@@@@@         29@@@@@@@@@@
                 290,0x00002222  0x00002222
@@@@@@@@@@         30@@@@@@@@@@
                 300,0x00002323  0x00002323
@@@@@@@@@@         31@@@@@@@@@@
                 310,0x00002424  0x00002424
@@@@@@@@@@         32@@@@@@@@@@
                 320,0x00000000  0x00000000
@@@@@@@@@@         33@@@@@@@@@@
                 330,0x00002525  0x00000064
@@@@@@@@@@         34@@@@@@@@@@
                 340,0x00000000  0x00000000
@@@@@@@@@@         35@@@@@@@@@@
                 350,0x00002525  0x00000064
@@@@@@@@@@         36@@@@@@@@@@
                 360,0x00002828  0x00000000
@@@@@@@@@@         37@@@@@@@@@@
                 370,0x00002525  0x00000064
@@@@@@@@@@         38@@@@@@@@@@
                 380,0x00003131  0x00000064
$finish called at time : 390 ns : File "D:/XilinxProject/CS202-Project/CS202-project/CS202-project.sim/sim_decoder.v" Line 30
